Library\Bee\artifacts\movedfrom\UnityEngine.UI.ref.dll_18079379552747940837.movedfrom
Library\Bee\artifacts\movedfrom\UnityEngine.AccessibilityModule.dll_17558177438280619962.movedfrom
Library\Bee\artifacts\movedfrom\UnityEngine.AIModule.dll_1475553706708233120.movedfrom
Library\Bee\artifacts\movedfrom\UnityEngine.AndroidJNIModule.dll_4107792030532338014.movedfrom
Library\Bee\artifacts\movedfrom\UnityEngine.AnimationModule.dll_9277570368175339488.movedfrom
Library\Bee\artifacts\movedfrom\UnityEngine.ARModule.dll_14838513369307695721.movedfrom
Library\Bee\artifacts\movedfrom\UnityEngine.AssetBundleModule.dll_5703066000356133646.movedfrom
Library\Bee\artifacts\movedfrom\UnityEngine.AudioModule.dll_16632022905780199634.movedfrom
Library\Bee\artifacts\movedfrom\UnityEngine.ClothModule.dll_5600557851007074230.movedfrom
Library\Bee\artifacts\movedfrom\UnityEngine.ClusterInputModule.dll_9946463301979268680.movedfrom
Library\Bee\artifacts\movedfrom\UnityEngine.ClusterRendererModule.dll_1803904252705548857.movedfrom
Library\Bee\artifacts\movedfrom\UnityEngine.CoreModule.dll_5428394542553655799.movedfrom
Library\Bee\artifacts\movedfrom\UnityEngine.CrashReportingModule.dll_1446543603098410479.movedfrom
Library\Bee\artifacts\movedfrom\UnityEngine.DirectorModule.dll_10395491027152534996.movedfrom
Library\Bee\artifacts\movedfrom\UnityEngine.dll_1923986748020391406.movedfrom
Library\Bee\artifacts\movedfrom\UnityEngine.DSPGraphModule.dll_10778685575974145781.movedfrom
Library\Bee\artifacts\movedfrom\UnityEngine.GameCenterModule.dll_7155966032187781711.movedfrom
Library\Bee\artifacts\movedfrom\UnityEngine.GIModule.dll_12445276821871252410.movedfrom
Library\Bee\artifacts\movedfrom\UnityEngine.GridModule.dll_2938216133018845166.movedfrom
Library\Bee\artifacts\movedfrom\UnityEngine.HotReloadModule.dll_146731056043332450.movedfrom
Library\Bee\artifacts\movedfrom\UnityEngine.ImageConversionModule.dll_9582181218690621997.movedfrom
Library\Bee\artifacts\movedfrom\UnityEngine.IMGUIModule.dll_2247419484742743219.movedfrom
Library\Bee\artifacts\movedfrom\UnityEngine.InputLegacyModule.dll_16170868727460888831.movedfrom
Library\Bee\artifacts\movedfrom\UnityEngine.InputModule.dll_5568305556926006646.movedfrom
Library\Bee\artifacts\movedfrom\UnityEngine.JSONSerializeModule.dll_6035587207454652484.movedfrom
Library\Bee\artifacts\movedfrom\UnityEngine.LocalizationModule.dll_14435648686638422337.movedfrom
Library\Bee\artifacts\movedfrom\UnityEngine.ParticleSystemModule.dll_7432471050440206717.movedfrom
Library\Bee\artifacts\movedfrom\UnityEngine.PerformanceReportingModule.dll_980621606308394422.movedfrom
Library\Bee\artifacts\movedfrom\UnityEngine.Physics2DModule.dll_14800654702987243381.movedfrom
Library\Bee\artifacts\movedfrom\UnityEngine.PhysicsModule.dll_7433950804528740835.movedfrom
Library\Bee\artifacts\movedfrom\UnityEngine.ProfilerModule.dll_14018136884082476257.movedfrom
Library\Bee\artifacts\movedfrom\UnityEngine.RuntimeInitializeOnLoadManagerInitializerModule.dll_3418187452164393534.movedfrom
Library\Bee\artifacts\movedfrom\UnityEngine.ScreenCaptureModule.dll_7902238565107901606.movedfrom
Library\Bee\artifacts\movedfrom\UnityEngine.SharedInternalsModule.dll_651893719140097405.movedfrom
Library\Bee\artifacts\movedfrom\UnityEngine.SpriteMaskModule.dll_5511152231652526025.movedfrom
Library\Bee\artifacts\movedfrom\UnityEngine.SpriteShapeModule.dll_7531858791662879512.movedfrom
Library\Bee\artifacts\movedfrom\UnityEngine.StreamingModule.dll_3843112447033454366.movedfrom
Library\Bee\artifacts\movedfrom\UnityEngine.SubstanceModule.dll_1297193587714469164.movedfrom
Library\Bee\artifacts\movedfrom\UnityEngine.SubsystemsModule.dll_13198064940902510556.movedfrom
Library\Bee\artifacts\movedfrom\UnityEngine.TerrainModule.dll_9327287213847249617.movedfrom
Library\Bee\artifacts\movedfrom\UnityEngine.TerrainPhysicsModule.dll_7466996622214292490.movedfrom
Library\Bee\artifacts\movedfrom\UnityEngine.TextCoreModule.dll_2954088597021421028.movedfrom
Library\Bee\artifacts\movedfrom\UnityEngine.TextRenderingModule.dll_10874458234544825499.movedfrom
Library\Bee\artifacts\movedfrom\UnityEngine.TilemapModule.dll_2336688496408093658.movedfrom
Library\Bee\artifacts\movedfrom\UnityEngine.TLSModule.dll_1593203335907432951.movedfrom
Library\Bee\artifacts\movedfrom\UnityEngine.UIElementsModule.dll_13503853864968006611.movedfrom
Library\Bee\artifacts\movedfrom\UnityEngine.UIElementsNativeModule.dll_12142998491904660810.movedfrom
Library\Bee\artifacts\movedfrom\UnityEngine.UIModule.dll_1147809276499194188.movedfrom
Library\Bee\artifacts\movedfrom\UnityEngine.UmbraModule.dll_7036167221207829573.movedfrom
Library\Bee\artifacts\movedfrom\UnityEngine.UNETModule.dll_15995607185570881392.movedfrom
Library\Bee\artifacts\movedfrom\UnityEngine.UnityAnalyticsModule.dll_9711134998391962489.movedfrom
Library\Bee\artifacts\movedfrom\UnityEngine.UnityConnectModule.dll_17855645136406385709.movedfrom
Library\Bee\artifacts\movedfrom\UnityEngine.UnityCurlModule.dll_12960566197163387341.movedfrom
Library\Bee\artifacts\movedfrom\UnityEngine.UnityTestProtocolModule.dll_9722537656649245883.movedfrom
Library\Bee\artifacts\movedfrom\UnityEngine.UnityWebRequestAssetBundleModule.dll_13274184202171109642.movedfrom
Library\Bee\artifacts\movedfrom\UnityEngine.UnityWebRequestAudioModule.dll_9626499206155894862.movedfrom
Library\Bee\artifacts\movedfrom\UnityEngine.UnityWebRequestModule.dll_10851923265542028460.movedfrom
Library\Bee\artifacts\movedfrom\UnityEngine.UnityWebRequestTextureModule.dll_1385476285898574819.movedfrom
Library\Bee\artifacts\movedfrom\UnityEngine.UnityWebRequestWWWModule.dll_15906117166789095199.movedfrom
Library\Bee\artifacts\movedfrom\UnityEngine.VehiclesModule.dll_578481115343998319.movedfrom
Library\Bee\artifacts\movedfrom\UnityEngine.VFXModule.dll_10879230419403293540.movedfrom
Library\Bee\artifacts\movedfrom\UnityEngine.VideoModule.dll_854088680330132599.movedfrom
Library\Bee\artifacts\movedfrom\UnityEngine.VirtualTexturingModule.dll_14776676762184275413.movedfrom
Library\Bee\artifacts\movedfrom\UnityEngine.VRModule.dll_7115684088104384196.movedfrom
Library\Bee\artifacts\movedfrom\UnityEngine.WindModule.dll_13953386654494025824.movedfrom
Library\Bee\artifacts\movedfrom\UnityEngine.XRModule.dll_10772258459825390626.movedfrom