Library\Bee\artifacts\movedfrom\Unity.Rider.Editor.ref.dll_11193012430168537007.movedfrom
Library\Bee\artifacts\movedfrom\Unity.TextMeshPro.Editor.ref.dll_1557689244747631494.movedfrom
Library\Bee\artifacts\movedfrom\Unity.TextMeshPro.ref.dll_9557809654341403355.movedfrom
Library\Bee\artifacts\movedfrom\Unity.Timeline.Editor.ref.dll_953984715949700626.movedfrom
Library\Bee\artifacts\movedfrom\Unity.Timeline.ref.dll_7069769579887910799.movedfrom
Library\Bee\artifacts\movedfrom\Unity.VSCode.Editor.ref.dll_3902429132378491929.movedfrom
Library\Bee\artifacts\movedfrom\Unity.VisualScripting.Core.Editor.ref.dll_17134060296949054973.movedfrom
Library\Bee\artifacts\movedfrom\Unity.VisualScripting.Core.ref.dll_15518829177300997364.movedfrom
Library\Bee\artifacts\movedfrom\Unity.VisualScripting.Flow.Editor.ref.dll_7708282115428993342.movedfrom
Library\Bee\artifacts\movedfrom\Unity.VisualScripting.Flow.ref.dll_2192924542065166755.movedfrom
Library\Bee\artifacts\movedfrom\Unity.VisualScripting.State.Editor.ref.dll_16156761413022531439.movedfrom
Library\Bee\artifacts\movedfrom\Unity.VisualScripting.State.ref.dll_15643080368937755746.movedfrom
Library\Bee\artifacts\movedfrom\Unity.VisualStudio.Editor.ref.dll_4221946230532187309.movedfrom
Library\Bee\artifacts\movedfrom\UnityEditor.TestRunner.ref.dll_1819107689489022899.movedfrom
Library\Bee\artifacts\movedfrom\UnityEditor.UI.ref.dll_5519394401220875509.movedfrom
Library\Bee\artifacts\movedfrom\UnityEngine.TestRunner.ref.dll_16527383234446630302.movedfrom
Library\Bee\artifacts\movedfrom\UnityEngine.UI.ref.dll_648142665722821984.movedfrom
Library\Bee\artifacts\movedfrom\UnityEditor.Graphs.dll_9713972588269407188.movedfrom
Library\Bee\artifacts\movedfrom\UnityEditor.CoreModule.dll_11869765559995966370.movedfrom
Library\Bee\artifacts\movedfrom\UnityEditor.DeviceSimulatorModule.dll_9956580608123840959.movedfrom
Library\Bee\artifacts\movedfrom\UnityEditor.dll_1020603768194659411.movedfrom
Library\Bee\artifacts\movedfrom\UnityEditor.GraphViewModule.dll_3923936800008761476.movedfrom
Library\Bee\artifacts\movedfrom\UnityEditor.PackageManagerUIModule.dll_15197542985160047230.movedfrom
Library\Bee\artifacts\movedfrom\UnityEditor.QuickSearchModule.dll_14804937328193687718.movedfrom
Library\Bee\artifacts\movedfrom\UnityEditor.SceneTemplateModule.dll_2990465414321422311.movedfrom
Library\Bee\artifacts\movedfrom\UnityEditor.UIBuilderModule.dll_10015245633722739128.movedfrom
Library\Bee\artifacts\movedfrom\UnityEditor.UIElementsModule.dll_14810109552710550430.movedfrom
Library\Bee\artifacts\movedfrom\UnityEditor.UIElementsSamplesModule.dll_1619287007002952111.movedfrom
Library\Bee\artifacts\movedfrom\UnityEditor.UIServiceModule.dll_14118606960727865810.movedfrom
Library\Bee\artifacts\movedfrom\UnityEditor.UnityConnectModule.dll_18390593201095189336.movedfrom
Library\Bee\artifacts\movedfrom\UnityEngine.AccessibilityModule.dll_6639906783667054468.movedfrom
Library\Bee\artifacts\movedfrom\UnityEngine.AIModule.dll_11611150960881848758.movedfrom
Library\Bee\artifacts\movedfrom\UnityEngine.AndroidJNIModule.dll_5463144520265626228.movedfrom
Library\Bee\artifacts\movedfrom\UnityEngine.AnimationModule.dll_358629784918934826.movedfrom
Library\Bee\artifacts\movedfrom\UnityEngine.ARModule.dll_6527366549771759743.movedfrom
Library\Bee\artifacts\movedfrom\UnityEngine.AssetBundleModule.dll_1251691736918295960.movedfrom
Library\Bee\artifacts\movedfrom\UnityEngine.AudioModule.dll_7370233839901526940.movedfrom
Library\Bee\artifacts\movedfrom\UnityEngine.ClothModule.dll_14785512858837953152.movedfrom
Library\Bee\artifacts\movedfrom\UnityEngine.ClusterInputModule.dll_9139202402602579486.movedfrom
Library\Bee\artifacts\movedfrom\UnityEngine.ClusterRendererModule.dll_10365496066769336131.movedfrom
Library\Bee\artifacts\movedfrom\UnityEngine.CoreModule.dll_14401020902537891533.movedfrom
Library\Bee\artifacts\movedfrom\UnityEngine.CrashReportingModule.dll_9946213680082740357.movedfrom
Library\Bee\artifacts\movedfrom\UnityEngine.DirectorModule.dll_1612132082645346346.movedfrom
Library\Bee\artifacts\movedfrom\UnityEngine.dll_4669723261383115064.movedfrom
Library\Bee\artifacts\movedfrom\UnityEngine.DSPGraphModule.dll_1995326631466957131.movedfrom
Library\Bee\artifacts\movedfrom\UnityEngine.GameCenterModule.dll_8511318521921069925.movedfrom
Library\Bee\artifacts\movedfrom\UnityEngine.GIModule.dll_4134130002335316432.movedfrom
Library\Bee\artifacts\movedfrom\UnityEngine.GridModule.dll_11910842493003080900.movedfrom
Library\Bee\artifacts\movedfrom\UnityEngine.HotReloadModule.dll_9674534546496479404.movedfrom
Library\Bee\artifacts\movedfrom\UnityEngine.ImageConversionModule.dll_18143773032754409271.movedfrom
Library\Bee\artifacts\movedfrom\UnityEngine.IMGUIModule.dll_11432374492573622141.movedfrom
Library\Bee\artifacts\movedfrom\UnityEngine.InputLegacyModule.dll_11719494464023051145.movedfrom
Library\Bee\artifacts\movedfrom\UnityEngine.InputModule.dll_14753260564756885568.movedfrom
Library\Bee\artifacts\movedfrom\UnityEngine.JSONSerializeModule.dll_13564060626550638606.movedfrom
Library\Bee\artifacts\movedfrom\UnityEngine.LocalizationModule.dll_13628387787261733143.movedfrom
Library\Bee\artifacts\movedfrom\UnityEngine.ParticleSystemModule.dll_15932141127424536595.movedfrom
Library\Bee\artifacts\movedfrom\UnityEngine.PerformanceReportingModule.dll_2009209844293087372.movedfrom
Library\Bee\artifacts\movedfrom\UnityEngine.Physics2DModule.dll_5881714119730838719.movedfrom
Library\Bee\artifacts\movedfrom\UnityEngine.PhysicsModule.dll_17693082762791764461.movedfrom
Library\Bee\artifacts\movedfrom\UnityEngine.ProfilerModule.dll_5234777939575287607.movedfrom
Library\Bee\artifacts\movedfrom\UnityEngine.RuntimeInitializeOnLoadManagerInitializerModule.dll_8278535418426043272.movedfrom
Library\Bee\artifacts\movedfrom\UnityEngine.ScreenCaptureModule.dll_15430711984203887728.movedfrom
Library\Bee\artifacts\movedfrom\UnityEngine.SharedInternalsModule.dll_9213485533203884679.movedfrom
Library\Bee\artifacts\movedfrom\UnityEngine.SpriteMaskModule.dll_6866504721385814239.movedfrom
Library\Bee\artifacts\movedfrom\UnityEngine.SpriteShapeModule.dll_3080484528225041826.movedfrom
Library\Bee\artifacts\movedfrom\UnityEngine.StreamingModule.dll_13370915937486601320.movedfrom
Library\Bee\artifacts\movedfrom\UnityEngine.SubstanceModule.dll_10824997078167616118.movedfrom
Library\Bee\artifacts\movedfrom\UnityEngine.SubsystemsModule.dll_14553417430635798770.movedfrom
Library\Bee\artifacts\movedfrom\UnityEngine.TerrainModule.dll_1139675098400721627.movedfrom
Library\Bee\artifacts\movedfrom\UnityEngine.TerrainPhysicsModule.dll_15966666699198622368.movedfrom
Library\Bee\artifacts\movedfrom\UnityEngine.TextCoreModule.dll_12617473726223783994.movedfrom
Library\Bee\artifacts\movedfrom\UnityEngine.TextRenderingModule.dll_18402931653640811621.movedfrom
Library\Bee\artifacts\movedfrom\UnityEngine.TilemapModule.dll_12595820454671117284.movedfrom
Library\Bee\artifacts\movedfrom\UnityEngine.TLSModule.dll_11598266993835429761.movedfrom
Library\Bee\artifacts\movedfrom\UnityEngine.UIElementsModule.dll_14859206354701294825.movedfrom
Library\Bee\artifacts\movedfrom\UnityEngine.UIElementsNativeModule.dll_2117317896385997472.movedfrom
Library\Bee\artifacts\movedfrom\UnityEngine.UIModule.dll_11283406530672809826.movedfrom
Library\Bee\artifacts\movedfrom\UnityEngine.UmbraModule.dll_16221122229038708495.movedfrom
Library\Bee\artifacts\movedfrom\UnityEngine.UNETModule.dll_6521489471845565510.movedfrom
Library\Bee\artifacts\movedfrom\UnityEngine.UnityAnalyticsModule.dll_18210805075376292367.movedfrom
Library\Bee\artifacts\movedfrom\UnityEngine.UnityConnectModule.dll_17048384237029696515.movedfrom
Library\Bee\artifacts\movedfrom\UnityEngine.UnityCurlModule.dll_4041625613906982679.movedfrom
Library\Bee\artifacts\movedfrom\UnityEngine.UnityTestProtocolModule.dll_15148863290073700101.movedfrom
Library\Bee\artifacts\movedfrom\UnityEngine.UnityWebRequestAssetBundleModule.dll_746119473734080544.movedfrom
Library\Bee\artifacts\movedfrom\UnityEngine.UnityWebRequestAudioModule.dll_10655087444140587812.movedfrom
Library\Bee\artifacts\movedfrom\UnityEngine.UnityWebRequestModule.dll_966771005896264118.movedfrom
Library\Bee\artifacts\movedfrom\UnityEngine.UnityWebRequestTextureModule.dll_14243611007271214457.movedfrom
Library\Bee\artifacts\movedfrom\UnityEngine.UnityWebRequestWWWModule.dll_5214645562733095733.movedfrom
Library\Bee\artifacts\movedfrom\UnityEngine.VehiclesModule.dll_10241866244546361285.movedfrom
Library\Bee\artifacts\movedfrom\UnityEngine.VFXModule.dll_2437550003621738734.movedfrom
Library\Bee\artifacts\movedfrom\UnityEngine.VideoModule.dll_10039043688161011521.movedfrom
Library\Bee\artifacts\movedfrom\UnityEngine.VirtualTexturingModule.dll_4750996166665612075.movedfrom
Library\Bee\artifacts\movedfrom\UnityEngine.VRModule.dll_17251281342277999834.movedfrom
Library\Bee\artifacts\movedfrom\UnityEngine.WindModule.dll_4479268940768709942.movedfrom
Library\Bee\artifacts\movedfrom\UnityEngine.XRModule.dll_2461111640289454648.movedfrom
Library\Bee\artifacts\movedfrom\UnityEditor.WindowsStandalone.Extensions.dll_1547519882153138718.movedfrom